[gd_scene load_steps=3 format=3 uid="uid://c6qjc1ri7odvc"]

[ext_resource type="Texture2D" uid="uid://d13rvg6fc0bjv" path="res://Sprites/Player.png" id="1_5x5is"]

[sub_resource type="CapsuleShape2D" id="CapsuleShape2D_nmhlp"]
radius = 27.0
height = 66.0

[node name="Player" type="Sprite2D"]
texture_filter = 1
texture_repeat = 1
texture = ExtResource("1_5x5is")

[node name="CollisionShape2D" type="CollisionShape2D" parent="."]
position = Vector2(0, 15)
shape = SubResource("CapsuleShape2D_nmhlp")
