[gd_resource type="StandardMaterial3D" load_steps=2 format=3 uid="uid://skjn0enccrhy"]

[ext_resource type="Texture2D" uid="uid://d13rvg6fc0bjv" path="res://Sprites/Player.png" id="1_fq6d7"]

[resource]
albedo_texture = ExtResource("1_fq6d7")
uv1_scale = Vector3(2, 2, 2)
uv1_offset = Vector3(-0.16, 0, 0)
uv1_world_triplanar = true
texture_filter = 2
proximity_fade_distance = 3546.56
distance_fade_max_distance = 1.55
